Project #2
…
Now we reorganize the data using pivot longer in order to have a better view the country, the boxer, the score and the count of wins, losses or draws in the category of world champion.

box1 <- box_df %>%
  pivot_longer(box_df,
               cols = c(wins:draws),
               names_to = "score",
               values_to = "times",
               values_drop_na = T)
box1

## # A tibble: 45 x 5
##    Country         Boxer        Weight.Class       score times
##    <chr>           <chr>        <chr>              <chr> <int>
##  1 United States   Jimmy Barry  Bantamweight       wins     58
##  2 United States   Jimmy Barry  Bantamweight       loss      0
##  3 United States   Jimmy Barry  Bantamweight       draws    10
##  4 United Kingdom Joe Calzaghe Super middleweight wins     46
##  5 United Kingdom Joe Calzaghe Super middleweight loss      0
##  6 United Kingdom Joe Calzaghe Super middleweight draws     0
##  7 South Korea     Kim Ji-won   Super bantamweight wins     16
##  8 South Korea     Kim Ji-won   Super bantamweight loss      0
##  9 South Korea     Kim Ji-won   Super bantamweight draws     2
## 10 Romania         Mihai Leu    Welterweight       wins     28
## # ... with 35 more rows
…
